{
  "numberOfRequests": 20,
  "flightNumberStartsWith": 508,
  "departureDateAndTimeLocal" : "2020-01-01T03:00:00",
  "bookingClassCode" : "C1",
  "childCapacity": 1,
  "infantCapacity": 1,
  "adultCapacity": 1,
  "numberOfFlightsPerReq": 10
}