{
  "numberOfRequestsForRF" : 10,
  "numberOfConcurrentRequestsForRF": 2,
  "sourceFlightId" : 1784,
  "dateRangeStartingDateForRF" : "2021-01-02",
  "dateRangeSize": 1,
  "numberOfRequestsForModify" : 4,
  "numberOfConcurrentRequestsForModify": 1,
  "flightNumbers" : ["G9501","G9502"],
  "numberOfRequestsForSellInventory" : 54,
  "numberOfConcurrentRequestsForSellInventory" : 1,
  "bookingClass" : "C1",
  "childCapacities": ["4","5"],
  "infantCapacities": ["1","2"],
  "adultCapacities": ["7","8"],
  "departureDateLocalStartsWith": "2021-01-05T10:00:00",
  "timePeriod": "PT5M",
  "numberOfRequestsForTransform" : 4,
  "numberOfConcurrentRequestsForTransform": 1
}
